20150623 03:54:06 -1 | 2104 | Market data farm connection is OK:cashfarm
20150623 03:54:06 -1 | 2104 | Market data farm connection is OK:usfarm.us
20150623 03:54:06 -1 | 2104 | Market data farm connection is OK:usfarm
20150623 03:54:06 -1 | 2106 | HMDS data farm connection is OK:ushmds
20150623 05:29:50 -1 | 2104 | Market data farm connection is OK:cashfarm
20150623 05:29:50 -1 | 2104 | Market data farm connection is OK:usfarm.us
20150623 05:29:50 -1 | 2104 | Market data farm connection is OK:usfarm
20150623 05:29:50 -1 | 2106 | HMDS data farm connection is OK:ushmds
20150623 05:32:16 -1 | 326 | Unable connect as the client id is already in use. Retry with a unique client id.
20150623 05:33:41 -1 | 504 | Not connected
20150623 05:35:06 -1 | 504 | Not connected
20150623 05:37:42 -1 | 2104 | Market data farm connection is OK:cashfarm
20150623 05:37:42 -1 | 2104 | Market data farm connection is OK:usfarm.us
20150623 05:37:42 -1 | 2104 | Market data farm connection is OK:usfarm
20150623 05:37:42 -1 | 2106 | HMDS data farm connection is OK:ushmds
20150623 05:37:43 0 | 200 | No security definition has been found for the request
20150623 05:39:07 0 | 200 | No security definition has been found for the request
20150623 05:40:32 0 | 200 | No security definition has been found for the request
20150623 05:41:53 -1 | 2104 | Market data farm connection is OK:cashfarm
20150623 05:41:53 -1 | 2104 | Market data farm connection is OK:usfarm.us
20150623 05:41:53 -1 | 2104 | Market data farm connection is OK:usfarm
20150623 05:41:53 -1 | 2106 | HMDS data farm connection is OK:ushmds
20150623 05:41:55 -1 | 2106 | HMDS data farm connection is OK:cashhmds
20150623 06:07:08 -1 | 2104 | Market data farm connection is OK:cashfarm
20150623 06:07:08 -1 | 2104 | Market data farm connection is OK:usfarm.us
20150623 06:07:08 -1 | 2104 | Market data farm connection is OK:usfarm
20150623 06:07:08 -1 | 2106 | HMDS data farm connection is OK:cashhmds
20150623 06:07:08 -1 | 2106 | HMDS data farm connection is OK:ushmds
20150623 06:42:15 -1 | 2104 | Market data farm connection is OK:cashfarm
20150623 06:42:15 -1 | 2104 | Market data farm connection is OK:usfarm.us
20150623 06:42:15 -1 | 2104 | Market data farm connection is OK:usfarm
20150623 06:42:15 -1 | 2106 | HMDS data farm connection is OK:cashhmds
20150623 06:42:15 -1 | 2106 | HMDS data farm connection is OK:ushmds
20150623 06:43:06 -1 | 2104 | Market data farm connection is OK:cashfarm
20150623 06:43:06 -1 | 2104 | Market data farm connection is OK:usfarm.us
20150623 06:43:06 -1 | 2104 | Market data farm connection is OK:usfarm
20150623 06:43:06 -1 | 2106 | HMDS data farm connection is OK:cashhmds
20150623 06:43:06 -1 | 2106 | HMDS data farm connection is OK:ushmds
20150623 06:43:06 0 | 200 | No security definition has been found for the request
20150623 06:50:37 -1 | 2104 | Market data farm connection is OK:cashfarm
20150623 06:50:37 -1 | 2104 | Market data farm connection is OK:usfarm.us
20150623 06:50:37 -1 | 2104 | Market data farm connection is OK:usfarm
20150623 06:50:37 -1 | 2106 | HMDS data farm connection is OK:cashhmds
20150623 06:50:37 -1 | 2106 | HMDS data farm connection is OK:ushmds
20150623 07:10:58 -1 | 2104 | Market data farm connection is OK:cashfarm
20150623 07:10:58 -1 | 2104 | Market data farm connection is OK:usfarm.us
20150623 07:10:58 -1 | 2104 | Market data farm connection is OK:usfarm
20150623 07:10:58 -1 | 2106 | HMDS data farm connection is OK:cashhmds
20150623 07:10:58 -1 | 2106 | HMDS data farm connection is OK:ushmds
20150623 07:21:06 -1 | 2104 | Market data farm connection is OK:cashfarm
20150623 07:21:06 -1 | 2104 | Market data farm connection is OK:usfarm.us
20150623 07:21:06 -1 | 2104 | Market data farm connection is OK:usfarm
20150623 07:21:06 -1 | 2106 | HMDS data farm connection is OK:cashhmds
20150623 07:21:06 -1 | 2106 | HMDS data farm connection is OK:ushmds
20150623 07:21:54 -1 | 2104 | Market data farm connection is OK:cashfarm
20150623 07:21:54 -1 | 2104 | Market data farm connection is OK:usfarm.us
20150623 07:21:54 -1 | 2104 | Market data farm connection is OK:usfarm
20150623 07:21:54 -1 | 2106 | HMDS data farm connection is OK:cashhmds
20150623 07:21:54 -1 | 2106 | HMDS data farm connection is OK:ushmds
20150623 08:23:22 -1 | 2104 | Market data farm connection is OK:cashfarm
20150623 08:23:22 -1 | 2104 | Market data farm connection is OK:usfarm.us
20150623 08:23:22 -1 | 2104 | Market data farm connection is OK:usfarm
20150623 08:23:22 -1 | 2106 | HMDS data farm connection is OK:cashhmds
20150623 08:23:22 -1 | 2106 | HMDS data farm connection is OK:ushmds
20150623 08:25:30 -1 | 2104 | Market data farm connection is OK:cashfarm
20150623 08:25:30 -1 | 2104 | Market data farm connection is OK:usfarm.us
20150623 08:25:30 -1 | 2104 | Market data farm connection is OK:usfarm
20150623 08:25:30 -1 | 2106 | HMDS data farm connection is OK:cashhmds
20150623 08:25:30 -1 | 2106 | HMDS data farm connection is OK:ushmds
20150623 08:28:58 -1 | 2104 | Market data farm connection is OK:cashfarm
20150623 08:28:58 -1 | 2104 | Market data farm connection is OK:usfarm.us
20150623 08:28:58 -1 | 2104 | Market data farm connection is OK:usfarm
20150623 08:28:58 -1 | 2106 | HMDS data farm connection is OK:cashhmds
20150623 08:28:58 -1 | 2106 | HMDS data farm connection is OK:ushmds
20150623 08:36:02 -1 | 2104 | Market data farm connection is OK:cashfarm
20150623 08:36:02 -1 | 2104 | Market data farm connection is OK:usfarm.us
20150623 08:36:02 -1 | 2104 | Market data farm connection is OK:usfarm
20150623 08:36:02 -1 | 2106 | HMDS data farm connection is OK:cashhmds
20150623 08:36:02 -1 | 2106 | HMDS data farm connection is OK:ushmds
20150623 08:39:49 -1 | 2104 | Market data farm connection is OK:cashfarm
20150623 08:39:49 -1 | 2104 | Market data farm connection is OK:usfarm.us
20150623 08:39:49 -1 | 2104 | Market data farm connection is OK:usfarm
20150623 08:39:49 -1 | 2106 | HMDS data farm connection is OK:cashhmds
20150623 08:39:49 -1 | 2106 | HMDS data farm connection is OK:ushmds
20150623 08:42:18 -1 | 2104 | Market data farm connection is OK:cashfarm
20150623 08:42:18 -1 | 2104 | Market data farm connection is OK:usfarm.us
20150623 08:42:18 -1 | 2104 | Market data farm connection is OK:usfarm
20150623 08:42:18 -1 | 2106 | HMDS data farm connection is OK:ushmds
20150623 08:42:20 -1 | 2106 | HMDS data farm connection is OK:cashhmds
20150623 08:43:22 -1 | 2104 | Market data farm connection is OK:cashfarm
20150623 08:43:22 -1 | 2104 | Market data farm connection is OK:usfarm.us
20150623 08:43:22 -1 | 2104 | Market data farm connection is OK:usfarm
20150623 08:43:22 -1 | 2106 | HMDS data farm connection is OK:cashhmds
20150623 08:43:22 -1 | 2106 | HMDS data farm connection is OK:ushmds
20150623 08:46:45 -1 | 2104 | Market data farm connection is OK:cashfarm
20150623 08:46:45 -1 | 2104 | Market data farm connection is OK:usfarm.us
20150623 08:46:45 -1 | 2104 | Market data farm connection is OK:usfarm
20150623 08:46:45 -1 | 2106 | HMDS data farm connection is OK:cashhmds
20150623 08:46:45 -1 | 2106 | HMDS data farm connection is OK:ushmds
20150623 08:49:14 -1 | 2104 | Market data farm connection is OK:cashfarm
20150623 08:49:14 -1 | 2104 | Market data farm connection is OK:usfarm.us
20150623 08:49:14 -1 | 2104 | Market data farm connection is OK:usfarm
20150623 08:49:14 -1 | 2106 | HMDS data farm connection is OK:cashhmds
20150623 08:49:14 -1 | 2106 | HMDS data farm connection is OK:ushmds
20150623 08:49:42 -1 | 326 | Unable connect as the client id is already in use. Retry with a unique client id.
20150623 08:50:02 -1 | 326 | Unable connect as the client id is already in use. Retry with a unique client id.
20150623 08:51:27 -1 | 504 | Not connected
20150623 10:37:18 -1 | 2104 | Market data farm connection is OK:cashfarm
20150623 10:37:18 -1 | 2104 | Market data farm connection is OK:usfarm.us
20150623 10:37:18 -1 | 2104 | Market data farm connection is OK:usfarm
20150623 10:37:18 -1 | 2106 | HMDS data farm connection is OK:ushmds
20150623 10:39:08 -1 | 326 | Unable connect as the client id is already in use. Retry with a unique client id.
20150623 10:39:53 -1 | 2108 | Market data farm connection is inactive but should be available upon demand.cashfarm
20150623 10:39:53 -1 | 2108 | Market data farm connection is inactive but should be available upon demand.cashfarm
20150623 10:39:53 -1 | 2108 | Market data farm connection is inactive but should be available upon demand.usfarm.us
20150623 10:39:53 -1 | 2108 | Market data farm connection is inactive but should be available upon demand.usfarm.us
20150623 10:40:33 -1 | 504 | Not connected
20150623 10:41:31 -1 | 326 | Unable connect as the client id is already in use. Retry with a unique client id.
20150623 10:42:32 -1 | 2104 | Market data farm connection is OK:usfarm.us
20150623 10:42:32 -1 | 2104 | Market data farm connection is OK:cashfarm
20150623 10:43:45 -1 | 502 | Couldn't connect to TWS.  Confirm that "Enable ActiveX and Socket Clients" is enabled on the TWS "Configure->API" menu.
20150623 10:45:58 -1 | 2104 | Market data farm connection is OK:cashfarm
20150623 10:45:58 -1 | 2104 | Market data farm connection is OK:usfarm.us
20150623 10:45:58 -1 | 2104 | Market data farm connection is OK:usfarm
20150623 10:45:58 -1 | 2106 | HMDS data farm connection is OK:ushmds
20150623 10:46:00 -1 | 2106 | HMDS data farm connection is OK:cashhmds
20150623 10:47:55 -1 | 2104 | Market data farm connection is OK:usfarm
20150623 10:47:55 -1 | 2106 | HMDS data farm connection is OK:cashhmds
20150623 10:47:55 -1 | 2106 | HMDS data farm connection is OK:ushmds
20150623 10:54:08 -1 | 2104 | Market data farm connection is OK:cashfarm
20150623 10:54:08 -1 | 2104 | Market data farm connection is OK:usfarm.us
20150623 10:54:08 -1 | 2104 | Market data farm connection is OK:usfarm
20150623 10:54:08 -1 | 2106 | HMDS data farm connection is OK:cashhmds
20150623 10:54:08 -1 | 2106 | HMDS data farm connection is OK:ushmds
20150623 10:56:30 -1 | 502 | Couldn't connect to TWS.  Confirm that "Enable ActiveX and Socket Clients" is enabled on the TWS "Configure->API" menu.
20150623 10:56:30 -1 | 504 | Not connected
20150623 10:59:17 -1 | 2104 | Market data farm connection is OK:cashfarm
20150623 10:59:17 -1 | 2104 | Market data farm connection is OK:usfarm.us
20150623 10:59:17 -1 | 2104 | Market data farm connection is OK:usfarm
20150623 10:59:17 -1 | 2106 | HMDS data farm connection is OK:ushmds
20150623 10:59:19 -1 | 2106 | HMDS data farm connection is OK:cashhmds
20150623 11:01:33 -1 | 2104 | Market data farm connection is OK:cashfarm
20150623 11:01:33 -1 | 2104 | Market data farm connection is OK:usfarm.us
20150623 11:01:33 -1 | 2104 | Market data farm connection is OK:usfarm
20150623 11:01:33 -1 | 2106 | HMDS data farm connection is OK:cashhmds
20150623 11:01:33 -1 | 2106 | HMDS data farm connection is OK:ushmds
20150624 04:14:08 -1 | 502 | Couldn't connect to TWS.  Confirm that "Enable ActiveX and Socket Clients" is enabled on the TWS "Configure->API" menu.
20150624 04:14:08 -1 | 504 | Not connected
20150624 04:17:41 -1 | 2104 | Market data farm connection is OK:cashfarm
20150624 04:17:41 -1 | 2104 | Market data farm connection is OK:usfarm.us
20150624 04:17:41 -1 | 2104 | Market data farm connection is OK:usfarm
20150624 04:17:41 -1 | 2106 | HMDS data farm connection is OK:ushmds
20150624 04:17:43 -1 | 2106 | HMDS data farm connection is OK:cashhmds
20150624 04:19:48 -1 | 2104 | Market data farm connection is OK:cashfarm
20150624 04:19:48 -1 | 2104 | Market data farm connection is OK:usfarm.us
20150624 04:19:48 -1 | 2104 | Market data farm connection is OK:usfarm
20150624 04:19:48 -1 | 2106 | HMDS data farm connection is OK:cashhmds
20150624 04:19:48 -1 | 2106 | HMDS data farm connection is OK:ushmds
20150624 05:03:21 -1 | 2104 | Market data farm connection is OK:cashfarm
20150624 05:03:21 -1 | 2104 | Market data farm connection is OK:usfarm.us
20150624 05:03:21 -1 | 2104 | Market data farm connection is OK:usfarm
20150624 05:03:21 -1 | 2106 | HMDS data farm connection is OK:cashhmds
20150624 05:03:21 -1 | 2106 | HMDS data farm connection is OK:ushmds
20150624 05:03:26 -1 | 2108 | Market data farm connection is inactive but should be available upon demand.cashfarm
20150624 05:03:26 -1 | 2108 | Market data farm connection is inactive but should be available upon demand.cashfarm
20150624 05:03:26 -1 | 2108 | Market data farm connection is inactive but should be available upon demand.usfarm.us
20150624 05:03:26 -1 | 2108 | Market data farm connection is inactive but should be available upon demand.usfarm.us
20150624 05:05:23 -1 | 2104 | Market data farm connection is OK:cashfarm
20150624 05:05:23 -1 | 2104 | Market data farm connection is OK:usfarm.us
20150624 05:05:27 -1 | 2104 | Market data farm connection is OK:cashfarm
20150624 05:05:27 -1 | 2104 | Market data farm connection is OK:usfarm.us
20150624 05:05:27 -1 | 2104 | Market data farm connection is OK:usfarm
20150624 05:05:27 -1 | 2106 | HMDS data farm connection is OK:cashhmds
20150624 05:05:27 -1 | 2106 | HMDS data farm connection is OK:ushmds
20150626 01:56:08 -1 | 502 | Couldn't connect to TWS.  Confirm that "Enable ActiveX and Socket Clients" is enabled on the TWS "Configure->API" menu.
20150626 01:56:08 -1 | 504 | Not connected
20150626 02:04:01 -1 | 2104 | Market data farm connection is OK:cashfarm
20150626 02:04:01 -1 | 2104 | Market data farm connection is OK:usfarm
20150626 02:04:01 -1 | 2106 | HMDS data farm connection is OK:ushmds
20150626 02:09:23 -1 | 326 | Unable connect as the client id is already in use. Retry with a unique client id.
20150626 02:09:25 -1 | 2108 | Market data farm connection is inactive but should be available upon demand.cashfarm
20150626 02:09:25 -1 | 2108 | Market data farm connection is inactive but should be available upon demand.cashfarm
20150626 02:10:09 -1 | 326 | Unable connect as the client id is already in use. Retry with a unique client id.
20150626 02:11:24 -1 | 2104 | Market data farm connection is OK:cashfarm
20150626 02:11:41 -1 | 502 | Couldn't connect to TWS.  Confirm that "Enable ActiveX and Socket Clients" is enabled on the TWS "Configure->API" menu.
20150626 02:12:36 -1 | 2104 | Market data farm connection is OK:cashfarm
20150626 02:12:36 -1 | 2104 | Market data farm connection is OK:usfarm.us
20150626 02:12:36 -1 | 2104 | Market data farm connection is OK:usfarm
20150626 02:12:36 -1 | 2106 | HMDS data farm connection is OK:ushmds
20150626 02:15:29 -1 | 2104 | Market data farm connection is OK:cashfarm
20150626 02:15:29 -1 | 2104 | Market data farm connection is OK:usfarm
20150626 02:15:29 -1 | 2106 | HMDS data farm connection is OK:ushmds
20150626 02:15:51 -1 | 326 | Unable connect as the client id is already in use. Retry with a unique client id.
20150626 02:16:33 -1 | 2108 | Market data farm connection is inactive but should be available upon demand.cashfarm
20150626 02:16:33 -1 | 2108 | Market data farm connection is inactive but should be available upon demand.cashfarm
20150626 02:18:33 -1 | 326 | Unable connect as the client id is already in use. Retry with a unique client id.
20150626 02:19:47 -1 | 2104 | Market data farm connection is OK:cashfarm
20150626 02:21:04 -1 | 2104 | Market data farm connection is OK:cashfarm
20150626 02:21:04 -1 | 2104 | Market data farm connection is OK:usfarm.us
20150626 02:21:04 -1 | 2104 | Market data farm connection is OK:usfarm
20150626 02:21:04 -1 | 2106 | HMDS data farm connection is OK:ushmds
20150626 02:21:05 -1 | 2106 | HMDS data farm connection is OK:cashhmds
20150626 02:22:40 -1 | 2104 | Market data farm connection is OK:usfarm
20150626 02:22:40 -1 | 2106 | HMDS data farm connection is OK:cashhmds
20150626 02:22:40 -1 | 2106 | HMDS data farm connection is OK:ushmds
20150626 02:24:50 -1 | 2104 | Market data farm connection is OK:usfarm
20150626 02:24:50 -1 | 2106 | HMDS data farm connection is OK:cashhmds
20150626 02:24:50 -1 | 2106 | HMDS data farm connection is OK:ushmds
20150626 03:37:12 -1 | 2104 | Market data farm connection is OK:usfarm
20150626 03:37:12 -1 | 2106 | HMDS data farm connection is OK:cashhmds
20150626 03:37:12 -1 | 2106 | HMDS data farm connection is OK:ushmds
20150626 03:38:36 -1 | 2104 | Market data farm connection is OK:usfarm.us
20150626 03:38:36 -1 | 2104 | Market data farm connection is OK:usfarm
20150626 03:38:36 -1 | 2106 | HMDS data farm connection is OK:cashhmds
20150626 03:38:36 -1 | 2106 | HMDS data farm connection is OK:ushmds
20150626 03:40:42 -1 | 2104 | Market data farm connection is OK:usfarm.us
20150626 03:40:42 -1 | 2104 | Market data farm connection is OK:usfarm
20150626 03:40:42 -1 | 2106 | HMDS data farm connection is OK:cashhmds
20150626 03:40:42 -1 | 2106 | HMDS data farm connection is OK:ushmds
20150703 09:18:44 -1 | 502 | Couldn't connect to TWS.  Confirm that "Enable ActiveX and Socket Clients" is enabled on the TWS "Configure->API" menu.
20150703 09:18:44 -1 | 504 | Not connected
20150703 09:19:08 -1 | 2104 | Market data farm connection is OK:cashfarm
20150703 09:19:08 -1 | 2104 | Market data farm connection is OK:usfarm.us
20150703 09:19:08 -1 | 2104 | Market data farm connection is OK:usfarm
20150703 09:19:08 -1 | 2106 | HMDS data farm connection is OK:ushmds
20150703 09:19:34 -1 | 2108 | Market data farm connection is inactive but should be available upon demand.cashfarm
20150703 09:19:34 -1 | 2108 | Market data farm connection is inactive but should be available upon demand.cashfarm
20150703 09:19:34 -1 | 2108 | Market data farm connection is inactive but should be available upon demand.usfarm.us
20150703 09:19:34 -1 | 2108 | Market data farm connection is inactive but should be available upon demand.usfarm.us
20150703 09:25:26 -1 | 326 | Unable connect as the client id is already in use. Retry with a unique client id.
20150703 09:26:22 -1 | 2104 | Market data farm connection is OK:usfarm.us
20150703 09:27:52 -1 | 2104 | Market data farm connection is OK:cashfarm
20150703 09:27:52 -1 | 2104 | Market data farm connection is OK:usfarm.us
20150703 09:27:52 -1 | 2104 | Market data farm connection is OK:usfarm
20150703 09:27:52 -1 | 2106 | HMDS data farm connection is OK:ushmds
20150703 09:27:54 -1 | 2106 | HMDS data farm connection is OK:cashhmds
20150703 09:29:24 -1 | 2108 | Market data farm connection is inactive but should be available upon demand.cashfarm
20150703 09:29:24 -1 | 2108 | Market data farm connection is inactive but should be available upon demand.cashfarm
20150703 09:29:24 -1 | 2108 | Market data farm connection is inactive but should be available upon demand.usfarm.us
20150703 09:29:24 -1 | 2108 | Market data farm connection is inactive but should be available upon demand.usfarm.us
20150703 09:30:32 -1 | 2104 | Market data farm connection is OK:usfarm
20150703 09:30:32 -1 | 2106 | HMDS data farm connection is OK:cashhmds
20150703 09:30:32 -1 | 2106 | HMDS data farm connection is OK:ushmds
20150708 09:51:30 -1 | 2104 | Market data farm connection is OK:usfarm
20150708 09:51:30 -1 | 2106 | HMDS data farm connection is OK:ushmds
20150708 09:51:32 -1 | 2106 | HMDS data farm connection is OK:cashhmds
20150708 09:53:37 -1 | 2104 | Market data farm connection is OK:usfarm
20150708 09:53:37 -1 | 2106 | HMDS data farm connection is OK:cashhmds
20150708 09:53:37 -1 | 2106 | HMDS data farm connection is OK:ushmds
20150709 09:26:12 -1 | 2104 | Market data farm connection is OK:cashfarm
20150709 09:26:12 -1 | 2104 | Market data farm connection is OK:usfarm.us
20150709 09:26:12 -1 | 2104 | Market data farm connection is OK:usfarm
20150709 09:26:12 -1 | 2106 | HMDS data farm connection is OK:cashhmds
20150709 09:26:12 -1 | 2106 | HMDS data farm connection is OK:ushmds
20150709 09:26:41 -1 | 2104 | Market data farm connection is OK:cashfarm
20150709 09:26:41 -1 | 2104 | Market data farm connection is OK:usfarm.us
20150709 09:26:41 -1 | 2104 | Market data farm connection is OK:usfarm
20150709 09:26:41 -1 | 2106 | HMDS data farm connection is OK:cashhmds
20150709 09:26:41 -1 | 2106 | HMDS data farm connection is OK:ushmds
20150709 09:33:10 -1 | 502 | Couldn't connect to TWS.  Confirm that "Enable ActiveX and Socket Clients" is enabled on the TWS "Configure->API" menu.
20150709 09:33:10 -1 | 504 | Not connected
20150709 09:49:23 -1 | 502 | Couldn't connect to TWS.  Confirm that "Enable ActiveX and Socket Clients" is enabled on the TWS "Configure->API" menu.
20150709 09:49:23 -1 | 504 | Not connected
20150709 09:50:06 -1 | 2104 | Market data farm connection is OK:cashfarm
20150709 09:50:06 -1 | 2104 | Market data farm connection is OK:usfarm.us
20150709 09:50:06 -1 | 2104 | Market data farm connection is OK:usfarm
20150709 09:50:06 -1 | 2106 | HMDS data farm connection is OK:cashhmds
20150709 09:50:06 -1 | 2106 | HMDS data farm connection is OK:ushmds
20150709 09:51:56 -1 | 2108 | Market data farm connection is inactive but should be available upon demand.usfarm.us
20150709 09:51:56 -1 | 2108 | Market data farm connection is inactive but should be available upon demand.usfarm.us
20150709 09:53:42 -1 | 2104 | Market data farm connection is OK:cashfarm
20150709 09:53:42 -1 | 2104 | Market data farm connection is OK:usfarm
20150709 09:53:42 -1 | 2106 | HMDS data farm connection is OK:cashhmds
20150709 09:53:42 -1 | 2106 | HMDS data farm connection is OK:ushmds
20150710 10:20:29 -1 | 2104 | Market data farm connection is OK:cashfarm
20150710 10:20:29 -1 | 2104 | Market data farm connection is OK:usfarm
20150710 10:20:29 -1 | 2106 | HMDS data farm connection is OK:cashhmds
20150710 10:20:29 -1 | 2106 | HMDS data farm connection is OK:ushmds
20150710 10:20:59 -1 | 2108 | Market data farm connection is inactive but should be available upon demand.cashfarm
20150710 10:20:59 -1 | 2108 | Market data farm connection is inactive but should be available upon demand.cashfarm
20150710 10:22:36 -1 | 2104 | Market data farm connection is OK:usfarm
20150710 10:22:36 -1 | 2106 | HMDS data farm connection is OK:cashhmds
20150710 10:22:36 -1 | 2106 | HMDS data farm connection is OK:ushmds
20150713 11:19:12 -1 | 2104 | Market data farm connection is OK:usfarm
20150713 11:19:12 -1 | 2106 | HMDS data farm connection is OK:cashhmds
20150713 11:19:12 -1 | 2106 | HMDS data farm connection is OK:ushmds
20150713 11:21:45 -1 | 2104 | Market data farm connection is OK:cashfarm
20150713 11:21:45 -1 | 2104 | Market data farm connection is OK:usfarm
20150713 11:21:45 -1 | 2106 | HMDS data farm connection is OK:cashhmds
20150713 11:21:45 -1 | 2106 | HMDS data farm connection is OK:ushmds
20150713 11:22:46 -1 | 2105 | HMDS data farm connection is broken:ushmds
20150713 11:22:48 -1 | 2105 | HMDS data farm connection is broken:cashhmds
20150713 11:22:48 -1 | 2103 | Market data farm connection is broken:cashfarm
20150713 11:22:48 -1 | 2106 | HMDS data farm connection is OK:ushmds
20150713 11:22:49 -1 | 2104 | Market data farm connection is OK:cashfarm
20150713 11:22:49 -1 | 2106 | HMDS data farm connection is OK:cashhmds
20150713 11:22:55 -1 | 1100 | Connectivity between IB and Trader Workstation has been lost.
20150713 11:22:55 0 | 200 | No security definition has been found for the request
20150713 11:23:11 -1 | 1102 | Connectivity between IB and Trader Workstation has been restored - data maintained.
20150713 11:26:07 -1 | 2104 | Market data farm connection is OK:cashfarm
20150713 11:26:07 -1 | 2104 | Market data farm connection is OK:usfarm
20150713 11:26:07 -1 | 2106 | HMDS data farm connection is OK:cashhmds
20150713 11:26:07 -1 | 2106 | HMDS data farm connection is OK:ushmds
20150713 11:38:11 -1 | 2104 | Market data farm connection is OK:cashfarm
20150713 11:38:11 -1 | 2104 | Market data farm connection is OK:usfarm
20150713 11:38:11 -1 | 2106 | HMDS data farm connection is OK:cashhmds
20150713 11:38:11 -1 | 2106 | HMDS data farm connection is OK:ushmds
20150713 11:40:18 -1 | 2104 | Market data farm connection is OK:cashfarm
20150713 11:40:18 -1 | 2104 | Market data farm connection is OK:usfarm
20150713 11:40:18 -1 | 2106 | HMDS data farm connection is OK:cashhmds
20150713 11:40:18 -1 | 2106 | HMDS data farm connection is OK:ushmds
20150714 09:32:08 -1 | 2104 | Market data farm connection is OK:cashfarm
20150714 09:32:08 -1 | 2104 | Market data farm connection is OK:usfarm
20150714 09:32:08 -1 | 2106 | HMDS data farm connection is OK:cashhmds
20150714 09:32:08 -1 | 2106 | HMDS data farm connection is OK:ushmds
20150714 09:34:15 -1 | 2104 | Market data farm connection is OK:cashfarm
20150714 09:34:15 -1 | 2104 | Market data farm connection is OK:usfarm
20150714 09:34:15 -1 | 2106 | HMDS data farm connection is OK:cashhmds
20150714 09:34:15 -1 | 2106 | HMDS data farm connection is OK:ushmds
20150715 07:57:05 -1 | 502 | Couldn't connect to TWS.  Confirm that "Enable ActiveX and Socket Clients" is enabled on the TWS "Configure->API" menu.
20150715 07:57:05 -1 | 504 | Not connected
20150715 07:59:26 -1 | 2104 | Market data farm connection is OK:cashfarm
20150715 07:59:26 -1 | 2104 | Market data farm connection is OK:usfarm
20150715 07:59:26 -1 | 2106 | HMDS data farm connection is OK:cashhmds
20150715 07:59:26 -1 | 2106 | HMDS data farm connection is OK:ushmds
20150715 08:46:07 -1 | 2104 | Market data farm connection is OK:cashfarm
20150715 08:46:07 -1 | 2104 | Market data farm connection is OK:usfarm
20150715 08:46:07 -1 | 2106 | HMDS data farm connection is OK:cashhmds
20150715 08:46:07 -1 | 2106 | HMDS data farm connection is OK:ushmds
20150716 09:04:03 -1 | 2104 | Market data farm connection is OK:cashfarm
20150716 09:04:03 -1 | 2104 | Market data farm connection is OK:usfarm
20150716 09:04:03 -1 | 2106 | HMDS data farm connection is OK:cashhmds
20150716 09:04:03 -1 | 2106 | HMDS data farm connection is OK:ushmds
20150716 09:06:13 -1 | 2104 | Market data farm connection is OK:cashfarm
20150716 09:06:13 -1 | 2104 | Market data farm connection is OK:usfarm
20150716 09:06:13 -1 | 2106 | HMDS data farm connection is OK:cashhmds
20150716 09:06:13 -1 | 2106 | HMDS data farm connection is OK:ushmds
20150717 09:27:46 -1 | 2104 | Market data farm connection is OK:cashfarm
20150717 09:27:46 -1 | 2104 | Market data farm connection is OK:usfarm
20150717 09:27:46 -1 | 2106 | HMDS data farm connection is OK:cashhmds
20150717 09:27:46 -1 | 2106 | HMDS data farm connection is OK:ushmds
20150717 09:29:53 -1 | 2104 | Market data farm connection is OK:cashfarm
20150717 09:29:53 -1 | 2104 | Market data farm connection is OK:usfarm
20150717 09:29:53 -1 | 2106 | HMDS data farm connection is OK:cashhmds
20150717 09:29:53 -1 | 2106 | HMDS data farm connection is OK:ushmds
20150720 09:36:40 -1 | 2104 | Market data farm connection is OK:cashfarm
20150720 09:36:40 -1 | 2104 | Market data farm connection is OK:usfarm
20150720 09:36:40 -1 | 2106 | HMDS data farm connection is OK:cashhmds
20150720 09:36:40 -1 | 2106 | HMDS data farm connection is OK:ushmds
20150720 09:38:46 -1 | 2104 | Market data farm connection is OK:cashfarm
20150720 09:38:46 -1 | 2104 | Market data farm connection is OK:usfarm
20150720 09:38:46 -1 | 2106 | HMDS data farm connection is OK:cashhmds
20150720 09:38:46 -1 | 2106 | HMDS data farm connection is OK:ushmds
20150721 10:43:04 -1 | 2104 | Market data farm connection is OK:cashfarm
20150721 10:43:04 -1 | 2104 | Market data farm connection is OK:usfarm
20150721 10:43:04 -1 | 2106 | HMDS data farm connection is OK:cashhmds
20150721 10:43:04 -1 | 2106 | HMDS data farm connection is OK:ushmds
20150721 10:45:10 -1 | 2104 | Market data farm connection is OK:cashfarm
20150721 10:45:10 -1 | 2104 | Market data farm connection is OK:usfarm
20150721 10:45:10 -1 | 2106 | HMDS data farm connection is OK:cashhmds
20150721 10:45:10 -1 | 2106 | HMDS data farm connection is OK:ushmds
20150721 01:52:16 -1 | 2104 | Market data farm connection is OK:cashfarm
20150721 01:52:16 -1 | 2104 | Market data farm connection is OK:usfarm
20150721 01:52:16 -1 | 2106 | HMDS data farm connection is OK:cashhmds
20150721 01:52:16 -1 | 2106 | HMDS data farm connection is OK:ushmds
20150721 02:58:46 -1 | 2104 | Market data farm connection is OK:cashfarm
20150721 02:58:46 -1 | 2104 | Market data farm connection is OK:usfarm
20150721 02:58:46 -1 | 2106 | HMDS data farm connection is OK:cashhmds
20150721 02:58:46 -1 | 2106 | HMDS data farm connection is OK:ushmds
20150721 03:00:52 -1 | 2104 | Market data farm connection is OK:cashfarm
20150721 03:00:52 -1 | 2104 | Market data farm connection is OK:usfarm
20150721 03:00:52 -1 | 2106 | HMDS data farm connection is OK:cashhmds
20150721 03:00:52 -1 | 2106 | HMDS data farm connection is OK:ushmds
20150722 09:33:01 -1 | 2104 | Market data farm connection is OK:cashfarm
20150722 09:33:01 -1 | 2104 | Market data farm connection is OK:usfarm
20150722 09:33:01 -1 | 2106 | HMDS data farm connection is OK:cashhmds
20150722 09:33:01 -1 | 2106 | HMDS data farm connection is OK:ushmds
20150722 09:35:10 -1 | 2104 | Market data farm connection is OK:cashfarm
20150722 09:35:10 -1 | 2104 | Market data farm connection is OK:usfarm
20150722 09:35:10 -1 | 2106 | HMDS data farm connection is OK:cashhmds
20150722 09:35:10 -1 | 2106 | HMDS data farm connection is OK:ushmds
20150723 10:32:56 -1 | 2104 | Market data farm connection is OK:cashfarm
20150723 10:32:56 -1 | 2104 | Market data farm connection is OK:usfarm
20150723 10:32:56 -1 | 2106 | HMDS data farm connection is OK:cashhmds
20150723 10:32:56 -1 | 2106 | HMDS data farm connection is OK:ushmds
20150723 10:35:03 -1 | 2104 | Market data farm connection is OK:cashfarm
20150723 10:35:03 -1 | 2104 | Market data farm connection is OK:usfarm
20150723 10:35:03 -1 | 2106 | HMDS data farm connection is OK:cashhmds
20150723 10:35:03 -1 | 2106 | HMDS data farm connection is OK:ushmds
20150724 08:38:50 -1 | 502 | Couldn't connect to TWS.  Confirm that "Enable ActiveX and Socket Clients" is enabled on the TWS "Configure->API" menu.
20150724 08:38:50 -1 | 504 | Not connected
20150724 08:43:37 -1 | 2104 | Market data farm connection is OK:cashfarm
20150724 08:43:37 -1 | 2104 | Market data farm connection is OK:usfarm
20150724 08:43:37 -1 | 2106 | HMDS data farm connection is OK:cashhmds
20150724 08:43:37 -1 | 2106 | HMDS data farm connection is OK:ushmds
20150724 08:45:47 -1 | 2104 | Market data farm connection is OK:cashfarm
20150724 08:45:47 -1 | 2104 | Market data farm connection is OK:usfarm
20150724 08:45:47 -1 | 2106 | HMDS data farm connection is OK:cashhmds
20150724 08:45:47 -1 | 2106 | HMDS data farm connection is OK:ushmds
